{
	"toolID": "doc_to_asfm",
	"toolName": "Doc To ASFM",
	"description": "Asfm Restful Api For Pkm",
	"phases": [ "LLD" ],
	"tasks": [ "unitTesting" ],
	"server":"http://pkm-api_asfm_1:8086",
	"endpoint":{
		"path":"/asfm/doc_to_asfm/{dbName}",
		"method":"post",
		"queryParameters":[
			{
				"name": "asynchronous",
				"description": "flag to control asynchronous/synchronous execution of doc_to_asfm job",
				"required": false,
				"type": "boolean",
				"required":true,
				"default":false
			}       
		],
		"pathFields":[
			{
				"name": "dbName",
				"description": "The DB name where to find the source file",
				"required": true,
				"type": "string",
				"isDBName": true
			}
		],
		"requestBody": {
			"type":"object",
			"required":true,
			"properties": {
				"file_path": {
					"description": "Documentation filename to process",
					"type": "string",
					"required":true,
					"artifactDesc": {
						"type:": "doc",
						"allowedExtensions": [ "docx" ]
					}
				}
			}
		}
	}
}
