{
    "toolID": "jmlgen",
    "toolName": "JML Generator",
    "phases": [
        "LLV",
        "HLV"
    ],
    "tasks": [
        "unitTesting",
        "acceptanceTesting"
    ],
    "description": "Generate JML",
    "server": "https://decoder-tool.ow2.org/jmlgen/jmlgen",
    "endpoint":{
        "path": "/generate",
        "method": "post",
        "queryParameters":[
            {
                "name": "db",
                "description": "The Project Name",
                "required": false,
                "type": "string",
                "isDBName": true
            }       
        ]
    }
}
