{
    "toolID": "variable-misuse-file",
    "toolName": "Variable Misuse for File",
    "description": "Performs variable misuse detection and repair given a collection of source code files",
    "phases": [
        "LLD"
    ],
    "tasks": [
        "moduleDesign",
        "systemImplementation"
    ],
    "server":"https://decoder-eu.org/apt/",
    "endpoint":{
        "path": "/predictions/{collectionId}/variable_misuse/{artefactId}",
        "method": "post",
        "pathFields":[
            {
                "name": "collectionId",
                "description": "The DB name where to find the source file",
                "required": true,
                "type": "string",
                "isDBName": true
            },
            {
                "name": "artefactId",
                "description": "The source file relative path",
                "required": true,
                "type": "string",
                "artifactDesc": {
                    "type:": "code",
                    "allowedExtensions": ["java", "c", "cpp"]
                }

            }
        ]

    } 
}
