{
    "toolID": "javaParser",
    "toolName": "Java Parser",
    "phases": [
        "LLD"
    ],
    "tasks": [
        "SystemImplementation"
    ],
    "openapi": {
        "openapi": "3.0.0",
        "info": {
            "version": "1.0.0",
            "title": "javaParser API",
            "description": "javaParser API description"
        },
        "servers": [{
            "url": "http://localhost:5001/"
        }],
        "components": {
            "securitySchemes": {
                "BasicAuth": {
                    "type": "http",
                    "scheme": "basic"
                }
            }
        },
        "paths": {
            "/decoder/javaASTGenerator/{dbName}/{sourceFileName}": {
                "get": {
                    "description": "Generates one or several JSON file(s) from the artefactID according to the generate parameter",
                    "parameters": [{
                            "name": "dbName",
                            "in": "path",
                            "description": "The DB name where to find the source file",
                            "required": true,
                            "schema": {
                                "type": "string"
                            },
                            "isDBName": true
                        },
                        {
                            "name": "sourceFileName",
                            "in": "path",
                            "description": "The source file relative path",
                            "required": true,
                            "schema": {
                                "type": "string"
                            },
                            "artifactDesc": {
                                "type:": "code",
                                "allowedExtensions": ["java"]
                            }

                        },
                        {
                            "name": "generate",
                            "in": "query",
                            "description": "Generate JSON files just with a specific type of annotations. If ommited, all files will be generated",
                            "required": false,
                            "schema": {
                                "type": "string",
                                "enum": [
                                    "ast",
                                    "comments",
                                    "annotations",
                                    "all"
                                ],
                                "example": "pre"
                            }
                        }
                    ],
                    "responses": {
                        "200": {
                            "description": "Generation Performed Successfully",
                            "content": {
                                "application/json": {
                                    "schema": [{
                                        "$lookup": "#/components/schemas/javaParser-response"
                                    }]
                                }
                            }
                        },
                        "400": {
                            "description": "Invalid request",
                            "content": {
                                "application/json": {
                                    "schema": {
                                        "type": "object",
                                        "properties": {
                                            "message": {
                                                "type": "string"
                                            }
                                        }
                                    }
                                }
                            }
                        },
                        "404": {
                            "description": "Artefact Not Found",
                            "content": {
                                "application/json": {
                                    "schema": {
                                        "type": "object",
                                        "properties": {
                                            "message": {
                                                "type": "string"
                                            }
                                        }
                                    }
                                }
                            }
                        }
                    }
                }
            }
        }
    }
}